{
	"TEST": [{ "event": "run", "dir": true, "route": [122, 139, 137] },
	{ "event": "turn", "deg": 0, "dir": true },
	{ "event": "toBufferWipIn" }],
	"M2025": [
		{ "event": "run", "dir": false, "route": [50, 54], "osl": -270 },
		{ "event": "turn", "deg": 90, "dir": true },
		{ "event": "run", "dir": false, "route": [96], "osl": -277 },
		{ "event": "lift", "dir": 1 },
		{ "event": "run", "dir": true, "route": [54], "osl": 0 },
		{ "event": "clearorder" },
		{ "event": "run", "dir": true, "route": [40, 31, 42, 32, { "num": 100, "zone": 2 }, 44, 49, 53, 102, 5, 45, 36, 122, 139, 137] },
		{ "event": "turn", "deg": 0, "dir": true },
		{ "event": "toBufferWipIn" }
	],
	"M2027": [
		{ "event": "turn", "deg": 90, "dir": true },
		{ "event": "run", "dir": true, "route": [88, 3], "osl": 0 },
		{ "event": "turn", "deg": 270, "dir": true },
		{ "event": "run", "dir": false, "route": [72], "osl": -220 },
		{ "event": "lift", "dir": 1 },
		{ "event": "clearorder" },
		{ "event": "run", "dir": true, "route": [6, 40, 31, 42, 32, { "num": 20, "zone": 2 }, 44, 49, 53, 102, 5, 45, 36, 122, 139, 137] },
		{ "event": "turn", "deg": 0, "dir": true },
		{ "event": "toBufferWipIn" }
	],
	"M2030": [
		{ "event": "turn", "deg": 180, "dir": true },
		{ "event": "run", "dir": true, "route": [6, 40, 31, 42, 39, 16], "osl": 14 },
		{ "event": "turn", "deg": 270, "dir": true },
		{ "event": "run", "dir": false, "route": [30], "osl": -245 },
		{ "event": "lift", "dir": 1 },
		{ "event": "clearorder" },
		{ "event": "run", "dir": true, "route": [{ "num": 16, "zone": 2 }, 44, 49, 53, 102, 5, 45, 36, 122, 139, 137] },
		{ "event": "turn", "deg": 0, "dir": true },
		{ "event": "toBufferWipIn" }
	],
	"M2029": [
		{ "event": "run", "dir": true, "route": [47, 62, 63, 64, 65, 66, 67, 55], "osl": 55 },
		{ "event": "turn", "deg": 90, "dir": true },
		{ "event": "run", "dir": false, "route": [98], "osl": -258 },
		{ "event": "lift", "dir": 1 },
		{ "event": "run", "dir": true, "route": [1] },
		{ "event": "turn", "deg": 180, "dir": true },
		{ "event": "clearorder" },
		{ "event": "run", "dir": true, "route": [67, 66, 65, 64, 63, 62, 47, 41, 6 ,40, 31, 42, 32, { "num": 100, "zone": 2 }, 44, 49, 53, 102, 5, 45, 36, 122, 139, 137] },
		{ "event": "turn", "deg": 0, "dir": true },
		{ "event": "toBufferWipIn" }
	],
	"M2032": [
		{ "event": "run", "dir": true, "route": [47, 62, 63, 64, 65, 66, 67, 55], "osl": 60 },
		{ "event": "turn", "deg": 90, "dir": true },
		{ "event": "run", "dir": false, "route": [98], "osl": -253 },
		{ "event": "lift", "dir": 1 },
		{ "event": "run", "dir": true, "route": [1] },
		{ "event": "turn", "deg": 180, "dir": true },
		{ "event": "clearorder" },
		{ "event": "run", "dir": true, "route": [67, 66, 65, 64, 63, 62, 47, 41, 6 ,40, 31, 42, 32, { "num": 20, "zone": 2 }, 44, 49, 53, 102, 5, 45, 36, 122, 139, 137] },
		{ "event": "turn", "deg": 0, "dir": true },
		{ "event": "toBufferWipIn" }
	],
	"M2024": [
		{ "event": "run", "dir": true, "route": [47, 62], "osl": 5 },
		{ "event": "turn", "deg": 90, "dir": true },
		{ "event": "run", "dir": false, "route": [95], "osl": -255 },
		{ "event": "lift", "dir": 1 },
		{ "event": "clearorder" },
		{ "event": "run", "dir": true, "route": [108, 52, 41, 6, 40, 31, 42, 32, { "num": 20, "zone": 2 }, 44, 49, 53, 102, 5, 45, 36, 122, 139, 137] },
		{ "event": "turn", "deg": 0, "dir": true },
		{ "event": "toBufferWipIn" }
	],
	"CW1": [
		{ "event": "run", "dir": true, "route": [47,62,7,8,10,13,14,18], "osl": 185 },
		{ "event": "turn", "deg": 270, "dir": false },
		{ "event": "run", "dir": false, "route": [11], "osl": -225 },
		{ "event": "lift", "dir": 1 },
		{ "event": "run", "dir": true, "route": [319] },
		{ "event": "turn", "deg": 180, "dir": false },
		{ "event": "clearorder" },
		{ "event": "run", "dir": true, "route": [65, 64, 63, 62, 47, 41, 6 ,40, 31, 42, 32, { "num": 20, "zone": 2 }, 44, 49, 53, 102, 5, 45, 36, 122, 139, 137] },
		{ "event": "turn", "deg": 0, "dir": true },
		{ "event": "toBufferWipIn" }
	],
	"CW2": [
		{ "event": "run", "dir": true, "route": [47,62,7,8,10,13,14], "osl": 270 },
		{ "event": "turn", "deg": 270, "dir": false },
		{ "event": "run", "dir": false, "route": [15], "osl": -225 },
		{ "event": "lift", "dir": 1 },
		{ "event": "run", "dir": true, "route": [309] },
		{ "event": "turn", "deg": 180, "dir": false },
		{ "event": "clearorder" },
		{ "event": "run", "dir": true, "route": [65, 64, 63, 62, 47, 41, 6 ,40, 31, 42, 32, { "num": 20, "zone": 2 }, 44, 49, 53, 102, 5, 45, 36, 122, 139, 137] },
		{ "event": "turn", "deg": 0, "dir": true },
		{ "event": "toBufferWipIn" }
	],
	"CW3": [
		{ "event": "run", "dir": true, "route": [47,62,7,8,10,13,14], "osl": 420 },
		{ "event": "turn", "deg": 270, "dir": false },
		{ "event": "run", "dir": false, "route": [19], "osl": -220 },
		{ "event": "lift", "dir": 1 },
		{ "event": "run", "dir": true, "route": [308] },
		{ "event": "turn", "deg": 180, "dir": false },
		{ "event": "clearorder" },
		{ "event": "run", "dir": true, "route": [65, 64, 63, 62, 47, 41, 6 ,40, 31, 42, 32, { "num": 20, "zone": 2 }, 44, 49, 53, 102, 5, 45, 36, 122, 139, 137] },
		{ "event": "turn", "deg": 0, "dir": true },
		{ "event": "toBufferWipIn" }
	],
	"CW4": [
		{ "event": "run", "dir": true, "route": [47,62,7,8,10,13], "osl": 225 },
		{ "event": "turn", "deg": 270, "dir": false },
		{ "event": "run", "dir": false, "route": [9], "osl": -220 },
		{ "event": "lift", "dir": 1 },
		{ "event": "run", "dir": true, "route": [299] },
		{ "event": "turn", "deg": 180, "dir": false },
		{ "event": "clearorder" },
		{ "event": "run", "dir": true, "route": [65, 64, 63, 62, 47, 41, 6 ,40, 31, 42, 32, { "num": 20, "zone": 2 }, 44, 49, 53, 102, 5, 45, 36, 122, 139, 137] },
		{ "event": "turn", "deg": 0, "dir": true },
		{ "event": "toBufferWipIn" }
	],
	"CP1": [
		{ "event": "run", "dir": true, "route": [47,62,7,8,10,13,14,18], "osl": 185 },
		{ "event": "turn", "deg": 270, "dir": false },
		{ "event": "run", "dir": false, "route": [11], "osl": -225 },
		{ "event": "lift", "dir": 1 },
		{ "event": "run", "dir": true, "route": [319] },
		{ "event": "turn", "deg": 180, "dir": false },
		{ "event": "clearorder" },
		{ "event": "run", "dir": true, "route": [65, 64, 63, 62, 47, 41, 6 ,40, 31, 42, 32, { "num": 20, "zone": 2 }, 44, 49, 53, 102, 5, 45, 36, 122, 37, 260, 261, 262, 263, 264, 265, 266, 267, 268, 269, 270, 271, 272, 273, 274, 275, 79, 117], "osl": 1 },
		{ "event": "toBufferPumpIn" }
	],
	"CP2": [
		{ "event": "run", "dir": true, "route": [47,62,7,8,10,13,14], "osl": 270 },
		{ "event": "turn", "deg": 270, "dir": false },
		{ "event": "run", "dir": false, "route": [15], "osl": -225 },
		{ "event": "lift", "dir": 1 },
		{ "event": "run", "dir": true, "route": [309] },
		{ "event": "turn", "deg": 180, "dir": false },
		{ "event": "clearorder" },
		{ "event": "run", "dir": true, "route": [65, 64, 63, 62, 47, 41, 6 ,40, 31, 42, 32, { "num": 20, "zone": 2 }, 44, 49, 53, 102, 5, 45, 36, 122, 37, 260, 261, 262, 263, 264, 265, 266, 267, 268, 269, 270, 271, 272, 273, 274, 275, 79, 117], "osl": 1 },
		{ "event": "toBufferPumpIn" }
	],
	"CP3": [
		{ "event": "run", "dir": true, "route": [47,62,7,8,10,13,14], "osl": 420 },
		{ "event": "turn", "deg": 270, "dir": false },
		{ "event": "run", "dir": false, "route": [19], "osl": -220 },
		{ "event": "lift", "dir": 1 },
		{ "event": "run", "dir": true, "route": [308] },
		{ "event": "turn", "deg": 180, "dir": false },
		{ "event": "clearorder" },
		{ "event": "run", "dir": true, "route": [65, 64, 63, 62, 47, 41, 6 ,40, 31, 42, 32, { "num": 20, "zone": 2 }, 44, 49, 53, 102, 5, 45, 36, 122, 37, 260, 261, 262, 263, 264, 265, 266, 267, 268, 269, 270, 271, 272, 273, 274, 275, 79, 117], "osl": 1 },
		{ "event": "toBufferPumpIn" }
	],
	"CP4": [
		{ "event": "run", "dir": true, "route": [47,62,7,8,10,13], "osl": 225 },
		{ "event": "turn", "deg": 270, "dir": false },
		{ "event": "run", "dir": false, "route": [9], "osl": -220 },
		{ "event": "lift", "dir": 1 },
		{ "event": "run", "dir": true, "route": [299] },
		{ "event": "turn", "deg": 180, "dir": false },
		{ "event": "clearorder" },
		{ "event": "run", "dir": true, "route": [65, 64, 63, 62, 47, 41, 6 ,40, 31, 42, 32, { "num": 20, "zone": 2 }, 44, 49, 53, 102, 5, 45, 36, 122, 37, 260, 261, 262, 263, 264, 265, 266, 267, 268, 269, 270, 271, 272, 273, 274, 275, 79, 117], "osl": 1 },
		{ "event": "toBufferPumpIn" }
	]
}